<?xml version="1.0" encoding="UTF-8"?>
<testng-results skipped="0" failed="0" ignored="0" total="2" passed="2">
  <reporter-output>
  </reporter-output>
  <suite name="Surefire suite" duration-ms="32847" started-at="2018-04-07T16:28:29Z" finished-at="2018-04-07T16:29:02Z">
    <groups>
    </groups>
    <test name="Surefire test" duration-ms="32847" started-at="2018-04-07T16:28:29Z" finished-at="2018-04-07T16:29:02Z">
      <class name="com.lordandtaylor.qa.runner.CloudTestWithJUnit">
        <test-method status="PASS" signature="loginFunctionality()" name="loginFunctionality[0 - Browser - chrome]" duration-ms="28329" started-at="2018-04-07T12:28:29Z" finished-at="2018-04-07T12:28:57Z">
          <reporter-output>
          </reporter-output>
        </test-method> <!-- loginFunctionality[0 - Browser - chrome] -->
        <test-method status="PASS" signature="createNewAccount()" name="createNewAccount[0 - Browser - chrome]" duration-ms="32717" started-at="2018-04-07T12:28:29Z" finished-at="2018-04-07T12:29:02Z">
          <reporter-output>
          </reporter-output>
        </test-method> <!-- createNewAccount[0 - Browser - chrome] -->
      </class> <!-- com.lordandtaylor.qa.runner.CloudTestWithJUnit -->
    </test> <!-- Surefire test -->
  </suite> <!-- Surefire suite -->
</testng-results>
