C:\MyDevelopment\SSMB4\BDTForLordAndTaylor\src\main\java\com\lordandtaylor\qa\utils\SeleniumUtils.java
C:\MyDevelopment\SSMB4\BDTForLordAndTaylor\src\main\java\com\lordandtaylor\qa\steps\ApplicationSteps.java
C:\MyDevelopment\SSMB4\BDTForLordAndTaylor\src\main\java\com\lordandtaylor\qa\steps\StepsBase.java
C:\MyDevelopment\SSMB4\BDTForLordAndTaylor\src\main\java\com\lordandtaylor\qa\steps\CreateNewAccountSteps.java
C:\MyDevelopment\SSMB4\BDTForLordAndTaylor\src\main\java\com\lordandtaylor\qa\utils\WebElementUtils.java
C:\MyDevelopment\SSMB4\BDTForLordAndTaylor\src\main\java\com\lordandtaylor\qa\utils\DriverFactory.java
C:\MyDevelopment\SSMB4\BDTForLordAndTaylor\src\main\java\com\lordandtaylor\qa\steps\HomePagrSteps.java
C:\MyDevelopment\SSMB4\BDTForLordAndTaylor\src\main\java\com\lordandtaylor\qa\pages\CreateNewAccountPage.java
C:\MyDevelopment\SSMB4\BDTForLordAndTaylor\src\main\java\com\lordandtaylor\qa\pages\HomePage.java
C:\MyDevelopment\SSMB4\BDTForLordAndTaylor\src\main\java\com\lordandtaylor\qa\hook\BeforeCloudTest.java
C:\MyDevelopment\SSMB4\BDTForLordAndTaylor\src\main\java\com\lordandtaylor\qa\pages\LoginPage.java
C:\MyDevelopment\SSMB4\BDTForLordAndTaylor\src\main\java\com\lordandtaylor\qa\pages\VerificationPage.java
C:\MyDevelopment\SSMB4\BDTForLordAndTaylor\src\main\java\com\lordandtaylor\qa\steps\LoginPageSteps.java
C:\MyDevelopment\SSMB4\BDTForLordAndTaylor\src\main\java\com\lordandtaylor\qa\steps\BeforeAfterHook.java
C:\MyDevelopment\SSMB4\BDTForLordAndTaylor\src\main\java\com\lordandtaylor\qa\pages\PageBase.java
